{
    "status": "success",
    "msg": "",
    "data": {
      "seoOnPage": {
        "og_type": "website",
        "titleHead": "Phim lẻ | Phim lẻ hay tuyển chọn | Phim lẻ mới nhất 2024",
        "descriptionHead": "Phim lẻ mới nhất tuyển chọn chất lượng cao, phim lẻ mới nhất 2024 vietsub cập nhật nhanh nhất. Phim lẻ vietsub nhanh nhất",
        "og_image": [
          "/upload/vod/20240906-1/859d9173c157f1192d79e585b1a940cc.jpg",
          "/upload/vod/20240906-1/d19011d0a5457695254ff9cc9fdbd5f0.jpg",
          "/upload/vod/20240906-1/72d466a677d66251221de3f4c0f51471.jpg",
          "/upload/vod/20240906-1/ee93abe99457a6e330b0cf06da959b7d.jpg",
          "/upload/vod/20240905-1/4aca5aab8de6f0397c300e0be229d16c.jpg",
          "/upload/vod/20240905-1/22b6a22461ae9477bcf735d7a97ebdad.jpg",
          "/upload/vod/20240905-1/1abef920fe5d41f3de385542f8f59e24.jpg",
          "/upload/vod/20240905-1/ac3a0c1f92f53e6de1608a35a2f2f2f3.jpg",
          "/upload/vod/20240905-1/0ae04078efcb6f98cc16ebe88076707c.jpg",
          "/upload/vod/20240905-1/480fabdb7b2df17349c45c110f8c7a11.jpg"
        ],
        "og_url": "danh-sach/phim-le"
      },
      "breadCrumb": [
        {
          "name": "Phim Lẻ",
          "slug": "/danh-sach/phim-le",
          "isCurrent": false,
          "position": 2
        },
        {
          "name": "Trang 1",
          "isCurrent": true,
          "position": 3
        }
      ],
      "titlePage": "Phim Lẻ",
      "items": [
        {
          "modified": {
            "time": "2024-09-06T20:22:28.000Z"
          },
          "_id": "073bc0c3d04eb94d5d8fe01c71afd78a",
          "name": "Bí Mật",
          "slug": "bi-mat",
          "origin_name": "The Secret",
          "type": "single",
          "poster_url": "upload/vod/20240906-1/859d9173c157f1192d79e585b1a940cc.jpg",
          "thumb_url": "upload/vod/20240906-1/f3176dc288710a0b93d83ac94b901b4b.jpg",
          "sub_docquyen": false,
          "chieurap": false,
          "time": "107 phút",
          "episode_current": "Full",
          "quality": "FHD",
          "lang": "Vietsub",
          "year": 2000,
          "category": [
            {
              "id": "bb2b4b030608ca5984c8dd0770f5b40b",
              "name": "Tình Cảm",
              "slug": "tinh-cam"
            },
            {
              "id": "37a7b38b6184a5ebd3c43015aa20709d",
              "name": "Chính Kịch",
              "slug": "chinh-kich"
            }
          ],
          "country": [
            {
              "id": "92f688188aa938a03a61a786d6616dcb",
              "name": "Pháp",
              "slug": "phap"
            }
          ]
        },
        {
          "modified": {
            "time": "2024-09-06T16:25:02.000Z"
          },
          "_id": "4dd650a88eeed2c86c758ffe6ea3ea99",
          "name": "Cuộc Phiêu Lưu Của Gia Đình Tí Hon",
          "slug": "cuoc-phieu-luu-cua-gia-dinh-ti-hon",
          "origin_name": "The Borrowers",
          "type": "single",
          "poster_url": "upload/vod/20240906-1/d19011d0a5457695254ff9cc9fdbd5f0.jpg",
          "thumb_url": "upload/vod/20240906-1/a08259918c55b3e338dc36e6ec6f8dab.jpg",
          "sub_docquyen": false,
          "chieurap": false,
          "time": "86 phút",
          "episode_current": "Full",
          "quality": "FHD",
          "lang": "Vietsub",
          "year": 1997,
          "category": [
            {
              "id": "66c78b23908113d478d8d85390a244b4",
              "name": "Phiêu Lưu",
              "slug": "phieu-luu"
            },
            {
              "id": "68564911f00849030f9c9c144ea1b931",
              "name": "Viễn Tưởng",
              "slug": "vien-tuong"
            },
            {
              "id": "9822be111d2ccc29c7172c78b8af8ff5",
              "name": "Hành Động",
              "slug": "hanh-dong"
            },
            {
              "id": "ba6fd52e5a3aca80eaaf1a3b50a182db",
              "name": "Hài Hước",
              "slug": "hai-huoc"
            },
            {
              "id": "a2492d6cbc4d58f115406ca14e5ec7b6",
              "name": "Gia Đình",
              "slug": "gia-dinh"
            }
          ],
          "country": [
            {
              "id": "74d9fa92f4dea9ecea8fc2233dc7921a",
              "name": "Âu Mỹ",
              "slug": "au-my"
            }
          ]
        },
        {
          "modified": {
            "time": "2024-09-06T13:02:38.000Z"
          },
          "_id": "9e123b0594af8982dfd9a501e034532d",
          "name": "Mangal Pandey: Cuộc Nổi Dậy",
          "slug": "mangal-pandey-cuoc-noi-day",
          "origin_name": "Mangal Pandey: The Rising",
          "type": "single",
          "poster_url": "upload/vod/20240906-1/72d466a677d66251221de3f4c0f51471.jpg",
          "thumb_url": "upload/vod/20240906-1/89cbebe7250db83c025a980e9f3da72e.jpg",
          "sub_docquyen": false,
          "chieurap": false,
          "time": "150 phút",
          "episode_current": "Full",
          "quality": "FHD",
          "lang": "Vietsub",
          "year": 2005,
          "category": [
            {
              "id": "37a7b38b6184a5ebd3c43015aa20709d",
              "name": "Chính Kịch",
              "slug": "chinh-kich"
            },
            {
              "id": "80a0052a8fb20e24d19b33e7ef7ffa10",
              "name": "Chiến Tranh",
              "slug": "chien-tranh"
            }
          ],
          "country": [
            {
              "id": "aadd510492662beef1a980624b26c685",
              "name": "Ấn Độ",
              "slug": "an-do"
            }
          ]
        },
        {
          "modified": {
            "time": "2024-09-06T13:01:16.000Z"
          },
          "_id": "b23f9f952360d73136bd5c7c07872113",
          "name": "Ác Linh Trong Xác Mẹ",
          "slug": "ac-linh-trong-xac-me",
          "origin_name": "Nearing Death",
          "type": "single",
          "poster_url": "upload/vod/20240906-1/ee93abe99457a6e330b0cf06da959b7d.jpg",
          "thumb_url": "upload/vod/20240906-1/9e2a574ba5d03b34176014365322515b.jpg",
          "sub_docquyen": false,
          "chieurap": true,
          "time": "96 phút",
          "episode_current": "Full",
          "quality": "FHD",
          "lang": "Vietsub",
          "year": 2024,
          "category": [
            {
              "id": "37a7b38b6184a5ebd3c43015aa20709d",
              "name": "Chính Kịch",
              "slug": "chinh-kich"
            },
            {
              "id": "4db8d7d4b9873981e3eeb76d02997d58",
              "name": "Kinh Dị",
              "slug": "kinh-di"
            },
            {
              "id": "a7b065b92ad356387ef2e075dee66529",
              "name": "Tâm Lý",
              "slug": "tam-ly"
            }
          ],
          "country": [
            {
              "id": "4647d00cf81f8fb0ab80f753320d0fc9",
              "name": "Indonesia",
              "slug": "indonesia"
            }
          ]
        },
        {
          "modified": {
            "time": "2024-09-05T20:56:22.000Z"
          },
          "_id": "20a85fedde1a26e56fe6b07f9e6192f0",
          "name": "Quỷ Dữ Quyến Rũ",
          "slug": "quy-du-quyen-ru",
          "origin_name": "Succubus",
          "type": "single",
          "poster_url": "upload/vod/20240905-1/4aca5aab8de6f0397c300e0be229d16c.jpg",
          "thumb_url": "upload/vod/20240905-1/bf4658569ac58ee27040e48052c0f01c.jpg",
          "sub_docquyen": false,
          "chieurap": false,
          "time": "103 phút",
          "episode_current": "Full",
          "quality": "FHD",
          "lang": "Vietsub",
          "year": 2024,
          "category": [
            {
              "id": "4db8d7d4b9873981e3eeb76d02997d58",
              "name": "Kinh Dị",
              "slug": "kinh-di"
            },
            {
              "id": "a7b065b92ad356387ef2e075dee66529",
              "name": "Tâm Lý",
              "slug": "tam-ly"
            }
          ],
          "country": [
            {
              "id": "74d9fa92f4dea9ecea8fc2233dc7921a",
              "name": "Âu Mỹ",
              "slug": "au-my"
            }
          ]
        },
        {
          "modified": {
            "time": "2024-09-05T20:25:57.000Z"
          },
          "_id": "deceadecf04167f28d3e92a743dca071",
          "name": "Mỹ Nhân",
          "slug": "my-nhan",
          "origin_name": "La Belle",
          "type": "single",
          "poster_url": "upload/vod/20240905-1/22b6a22461ae9477bcf735d7a97ebdad.jpg",
          "thumb_url": "upload/vod/20240905-1/d7b85075be1a565490930fac72d77f37.jpg",
          "sub_docquyen": false,
          "chieurap": false,
          "time": "93 phút",
          "episode_current": "Full",
          "quality": "FHD",
          "lang": "Vietsub",
          "year": 2000,
          "category": [
            {
              "id": "bb2b4b030608ca5984c8dd0770f5b40b",
              "name": "Tình Cảm",
              "slug": "tinh-cam"
            },
            {
              "id": "1a18f0d42e4e66060dbf1fd7cb25d11a",
              "name": "Tâm Lý",
              "slug": "tam-ly"
            }
          ],
          "country": [
            {
              "id": "05de95be5fc404da9680bbb3dd8262e6",
              "name": "Hàn Quốc",
              "slug": "han-quoc"
            }
          ]
        },
        {
          "modified": {
            "time": "2024-09-05T20:24:23.000Z"
          },
          "_id": "d89af72662f49ece4d09dec75a8b0166",
          "name": "Hoàng Tử Và Cô Gái Mù",
          "slug": "hoang-tu-va-co-gai-mu",
          "origin_name": "Fanaa",
          "type": "single",
          "poster_url": "upload/vod/20240905-1/1abef920fe5d41f3de385542f8f59e24.jpg",
          "thumb_url": "upload/vod/20240905-1/317a5d51f585602118b540dd760e727e.jpg",
          "sub_docquyen": false,
          "chieurap": false,
          "time": "168 phút",
          "episode_current": "Full",
          "quality": "FHD",
          "lang": "Vietsub",
          "year": 2006,
          "category": [
            {
              "id": "9822be111d2ccc29c7172c78b8af8ff5",
              "name": "Hành Động",
              "slug": "hanh-dong"
            },
            {
              "id": "37a7b38b6184a5ebd3c43015aa20709d",
              "name": "Chính Kịch",
              "slug": "chinh-kich"
            },
            {
              "id": "bb2b4b030608ca5984c8dd0770f5b40b",
              "name": "Tình Cảm",
              "slug": "tinh-cam"
            },
            {
              "id": "a7b065b92ad356387ef2e075dee66529",
              "name": "Tâm Lý",
              "slug": "tam-ly"
            }
          ],
          "country": [
            {
              "id": "aadd510492662beef1a980624b26c685",
              "name": "Ấn Độ",
              "slug": "an-do"
            }
          ]
        },
        {
          "modified": {
            "time": "2024-09-05T20:21:56.000Z"
          },
          "_id": "899637611106fa77ee41097ef65f60af",
          "name": "Gilmore Tay Golf Cừ Khôi",
          "slug": "gilmore-tay-golf-cu-khoi",
          "origin_name": "Happy Gilmore",
          "type": "single",
          "poster_url": "upload/vod/20240905-1/ac3a0c1f92f53e6de1608a35a2f2f2f3.jpg",
          "thumb_url": "upload/vod/20240905-1/a74495916065e0e07c7a63c085dd7d1a.jpg",
          "sub_docquyen": false,
          "chieurap": false,
          "time": "92 phút",
          "episode_current": "Full",
          "quality": "FHD",
          "lang": "Vietsub",
          "year": 1996,
          "category": [
            {
              "id": "ba6fd52e5a3aca80eaaf1a3b50a182db",
              "name": "Hài Hước",
              "slug": "hai-huoc"
            },
            {
              "id": "46a6df48b64935df845cf8ad4f448d4c",
              "name": "Tình Cảm",
              "slug": "tinh-cam"
            },
            {
              "id": "1a18f0d42e4e66060dbf1fd7cb25d11a",
              "name": "Tâm Lý",
              "slug": "tam-ly"
            }
          ],
          "country": [
            {
              "id": "74d9fa92f4dea9ecea8fc2233dc7921a",
              "name": "Âu Mỹ",
              "slug": "au-my"
            }
          ]
        },
        {
          "modified": {
            "time": "2024-09-05T20:20:16.000Z"
          },
          "_id": "f1f3e014594ba3f4ed9d9a5f422281aa",
          "name": "Điệp Vụ Thần Tốc",
          "slug": "diep-vu-than-toc",
          "origin_name": "Dhoom 3",
          "type": "single",
          "poster_url": "upload/vod/20240905-1/0ae04078efcb6f98cc16ebe88076707c.jpg",
          "thumb_url": "upload/vod/20240905-1/e550dd51f3b995c3e3b312c0b7285118.jpg",
          "sub_docquyen": false,
          "chieurap": false,
          "time": "171 phút",
          "episode_current": "Full",
          "quality": "FHD",
          "lang": "Vietsub",
          "year": 2013,
          "category": [
            {
              "id": "9822be111d2ccc29c7172c78b8af8ff5",
              "name": "Hành Động",
              "slug": "hanh-dong"
            },
            {
              "id": "7a035ac0b37f5854f0f6979260899c90",
              "name": "Hình Sự",
              "slug": "hinh-su"
            }
          ],
          "country": [
            {
              "id": "aadd510492662beef1a980624b26c685",
              "name": "Ấn Độ",
              "slug": "an-do"
            }
          ]
        },
        {
          "modified": {
            "time": "2024-09-05T20:18:28.000Z"
          },
          "_id": "00254d816728ef385187c60b08cb5c10",
          "name": "Cú Click Huyền Bí",
          "slug": "cu-click-huyen-bi",
          "origin_name": "Click",
          "type": "single",
          "poster_url": "upload/vod/20240905-1/480fabdb7b2df17349c45c110f8c7a11.jpg",
          "thumb_url": "upload/vod/20240905-1/ad7e19b3fb57fd5c4a416f8050fe6a49.jpg",
          "sub_docquyen": false,
          "chieurap": false,
          "time": "107 phút",
          "episode_current": "Full",
          "quality": "FHD",
          "lang": "Vietsub",
          "year": 2006,
          "category": [
            {
              "id": "ba6fd52e5a3aca80eaaf1a3b50a182db",
              "name": "Hài Hước",
              "slug": "hai-huoc"
            },
            {
              "id": "37a7b38b6184a5ebd3c43015aa20709d",
              "name": "Chính Kịch",
              "slug": "chinh-kich"
            },
            {
              "id": "68564911f00849030f9c9c144ea1b931",
              "name": "Viễn Tưởng",
              "slug": "vien-tuong"
            }
          ],
          "country": [
            {
              "id": "74d9fa92f4dea9ecea8fc2233dc7921a",
              "name": "Âu Mỹ",
              "slug": "au-my"
            }
          ]
        }
      ],
      "params": {
        "type_slug": "danh-sach",
        "filterCategory": [
          ""
        ],
        "filterCountry": [
          ""
        ],
        "filterYear": "",
        "filterType": "",
        "sortField": "modified.time",
        "sortType": "desc",
        "pagination": {
          "totalItems": 12538,
          "totalItemsPerPage": 10,
          "currentPage": 1,
          "totalPages": 1254
        }
      },
      "type_list": "phim-le",
      "APP_DOMAIN_FRONTEND": "https://phimapi.com",
      "APP_DOMAIN_CDN_IMAGE": "https://phimimg.com"
    }
  }